BKM Analysis
…
Student Numbers in Universities

Anadolu University is the most crowded university based on popluation thanks to its ak-retim (distance-education-program)

university <- raw_data%>%
  select(name_of_university, total_total)%>%
  group_by(name_of_university)%>%
  transmute(lala = sum(total_total)) %>% distinct() %>%
  arrange(desc(lala)) %>%
  filter(row_number()<2)
print(university)

## # A tibble: 242 x 2
## # Groups:   name_of_university [242]
##    name_of_university                lala
##    <chr>                            <dbl>
##  1 ANADOLU UNIVERSITESI          15179612
##  2 ATATURK UNIVERSITESI           1368821
##  3 ISTANBUL UNIVERSITESI          1203565
##  4 SELCUK UNIVERSITESI             418229
##  5 MARMARA UNIVERSITESI            394578
##  6 SAKARYA UNIVERSITESI            392254
##  7 KOCAELI UNIVERSITESI            383457
##  8 DOKUZ EYLUL UNIVERSITESI        354831
##  9 SULEYMAN DEMIREL UNIVERSITESI   348652
## 10 GAZI UNIVERSITESI               344318
## # ... with 232 more rows
…
Excluding top biggest cities, Konya is the biggest city containing 13 different higher education constitutions.

raw_data  %>% 
  select(year_of_education, total_total, city) %>%
  group_by(year_of_education) %>%
  mutate(total_total3 = sum(total_total)) %>%
  group_by(city, year_of_education) %>%
  arrange(desc(total_total3))

## # A tibble: 908 x 4
## # Groups:   city, year_of_education [405]
##    year_of_education total_total city           total_total3
##    <chr>                   <dbl> <chr>                 <dbl>
##  1 2019-2018                1408 KAYSERI             7740502
##  2 2019-2018                4287 ISTANBUL            7740502
##  3 2019-2018                2450 ADANA               7740502
##  4 2019-2018               20417 ADIYAMAN            7740502
##  5 2019-2018               36727 AFYONKARAHISAR      7740502
##  6 2019-2018                5060 AFYONKARAHISAR      7740502
##  7 2019-2018               12368 AGRI                7740502
##  8 2019-2018               65922 ANTALYA             7740502
##  9 2019-2018               21979 AKSARAY             7740502
## 10 2019-2018               10861 ANTALYA             7740502
## # ... with 898 more rows

raw_data%>%
  
  select(city)%>%
  distinct()

## # A tibble: 81 x 1
##    city          
##    <chr>         
##  1 BOLU          
##  2 KAYSERI       
##  3 ISTANBUL      
##  4 ADANA         
##  5 ADIYAMAN      
##  6 AYDIN         
##  7 AFYONKARAHISAR
##  8 AGRI          
##  9 KIRSEHIR      
## 10 ANTALYA       
## # ... with 71 more rows
…
